[gd_scene load_steps=5 format=2]

[ext_resource path="res://Materials/Material2.tres" type="Material" id=1]
[ext_resource path="res://Brood.cs" type="Script" id=2]

[sub_resource type="SphereMesh" id=1]
radius = 0.1
height = 0.2

[sub_resource type="SphereShape" id=2]
radius = 0.1

[node name="RigidBody" type="RigidBody"]
script = ExtResource( 2 )

[node name="MeshInstance" type="MeshInstance" parent="."]
mesh = SubResource( 1 )
material/0 = ExtResource( 1 )

[node name="CollisionShape" type="CollisionShape" parent="."]
shape = SubResource( 2 )
